{
  "1f59a84fe794ad4d563ab7dd4a146b4c" : {
    "statistic" : {
      "failed" : 1,
      "broken" : 0,
      "skipped" : 0,
      "passed" : 0,
      "unknown" : 0,
      "total" : 1
    },
    "items" : [ {
      "uid" : "d58d55d32521d3e4",
      "status" : "failed",
      "statusDetails" : "Timed out retrying after 4000ms: Expected to find element: `[data-qa-node=\"numberdebitSource\"]`, but never found it.",
      "time" : {
        "start" : 1619711563281,
        "stop" : 1619711577603,
        "duration" : 14322
      }
    } ]
  },
  "86b90f6b1eeb65d45ccc3ca5428e46a8" : {
    "statistic" : {
      "failed" : 0,
      "broken" : 0,
      "skipped" : 0,
      "passed" : 1,
      "unknown" : 0,
      "total" : 1
    },
    "items" : [ {
      "uid" : "981a66ad060099bb",
      "status" : "passed",
      "time" : {
        "start" : 1619711523601,
        "stop" : 1619711550630,
        "duration" : 27029
      }
    } ]
  },
  "bfe8afc341a04f16a4ba5f0e69984916" : {
    "statistic" : {
      "failed" : 1,
      "broken" : 0,
      "skipped" : 0,
      "passed" : 0,
      "unknown" : 0,
      "total" : 1
    },
    "items" : [ {
      "uid" : "aca380527f1c302d",
      "status" : "failed",
      "statusDetails" : "Timed out retrying after 4000ms: Expected to find element: `[data-qa-node=\"query\"]`, but never found it.",
      "time" : {
        "start" : 1619711585939,
        "stop" : 1619711595984,
        "duration" : 10045
      }
    } ]
  }
}